0; Men&rsquo;s Fitness Workout Manual 2015 + 10 Week Body Plan - Yo; 03/10/2015
1; The Speed Math Bible - Transform your Brain - Yamada Takumi; 03/10/2015
2; English: How to Speak English Fluently in 1 Week - Edward Clemon; 03/10/2015
3; Speed Mathematics - Secret Skills Collection; 03/10/2015
4; Boost Your Brain - Switch on Your Brain - Joel Levy - Mantesh; 03/10/2015
5; English Pronunciation Books and Audio Books Collection - Mantesh; 03/10/2015
6; Fitness by Penis:  Method to Enlarge Your Penis - Peter Pandore; 03/10/2015
7; Sketching - Freehand and Digital Drawing Techniques for Artists ; 03/10/2015
8; Fruit and Vegetables in Pots (gnv64); 03/10/2015
9; Reflexology: Beginners Guide to Eliminate Pain, Lose Weight and ; 03/10/2015
10; The 9 Principles for a Lean & Defined Body - Philip Hoffman; 03/10/2015
11; 50 Shades of Herbs: The Best Natural Remedies for Better Sex, Be; 03/10/2015
12; How to Clear Your Home of Ghosts & Spirits,Haunted Places; 03/10/2015
13; The Great Book Of Best Quotes Of All Time.; 03/10/2015
14; Jokes Books Collection - Mantesh; 03/10/2015
15; The Secrets to Writing a Successful Business Plan - Hal Shelton; 03/10/2015
16; Learning Android Software Development ABEE; 03/10/2015
17; New York Times Bestsellers (January 04, 2015)(Fiction+Non-Fictio; 03/10/2015
18; Encyclopedia of Electronic Components Volume 1,2 +  Instruments ; 03/10/2015
19; Assorted Magazines Bundle - March 9 2015 (True PDF); 03/10/2015
20; Assorted Magazines Bundle - March 8 2015 (True PDF); 03/10/2015
21; Magazine Pack 02.20.2015 ABEE; 03/10/2015
22; The Great Big Book of Horrible Things - Matthew White - Mantesh; 03/10/2015
23; The 21-Day Big Muscle Plan + The 21-Day Shred - The No-BS Traini; 03/10/2015
24; How to Start a Home-based Computer Repair Business - Ryan Arter ; 03/10/2015
25; The Complete Book of Drawing Techniques [PDF] - Oceanhawk; 03/10/2015
26; Drawing For Beginners! - Amy Taggart + Drawing Complete Guide Fo; 03/10/2015
27; The Muscle And Fitness Cookbook: 55 Fast & Easy Meals for ; 03/10/2015
28; 101 Ready-to-Use Excel Formulas - Michael Alexander, Dick Kuslei; 03/10/2015
29; Five Good Minutes in the Evening - Jeffrey Brantley, Wendy Mills; 03/10/2015
30; Educational Materials - Activity Books, Coloring Books, and Puzz; 03/10/2015
31; Fluent in 3 Months -  Speak Any Language, English,French,Spanish; 03/10/2015
32; Idiot's Guides: Basic Math and Pre-Algebra - Carolyn Wheater ; 03/10/2015
33; How to Draw Realistic Portraits: with Colored Pencils - Jasmina ; 03/10/2015
34; Assorted Magazines Bundle - March 5 2015 (True PDF); 03/10/2015
35; Maker Dad - Incredibly Cool  DIY Projects - Mark Frauenfelder ; 03/10/2015
36; 1000 Foods To Eat Before You Die - Mimi Sheraton; 03/10/2015
37; The Complete Guide to Bathrooms + Bath Planning Guidelines; 03/10/2015
38; Superfoods at Every Meal - Nourish Your Family with Quick and Ea; 03/10/2015
39; Assorted Magazines Bundle - March 10 2015 (True PDF); 03/10/2015
40; The Hair Bible - A Complete Guide to Health and Care,Fabulous Ha; 03/10/2015
41; 10 Secrets to Growing Black Hair Long and Fast - C Collins - Man; 03/10/2015
42; House & Garden Magazines - March 9 2015 (True PDF); 03/10/2015
43; Show Me How: 500 Things You Should Know - Instructions for Life ; 03/10/2015
44; Home Magazines Bundle - March 6 2015 (True PDF); 03/10/2015
45; Computer & Gadget Magazines - February 20 2015 (True PDF); 03/10/2015
46; The Homeowner's DIY Guide to Electrical Wiring - David Herres - ; 03/10/2015
47; 150 Best Minimalist House Ideas; 03/10/2015
48; Sex Trafficking - Inside the Business of Modern Slavery (gnv64); 03/10/2015
49; Womens Magazines Bundle - March 9 2015 (True PDF); 03/10/2015
50; Penthouse Black Label - March 2015  AU; 03/10/2015
51; Assorted Magazines Bundle - March 7 2015 (True PDF); 03/10/2015
52; Learning PHP, MySQL, JavaScript, CSS & HTML5, 3e (2014).; 03/10/2015
53; The 48 Laws of Power by Robert Greene; 03/10/2015
54; The Book of Books: Recommended Reading: Best Books (Fiction and ; 03/10/2015
55; Yoga Basics for Men: An Intro to Man Flow Yoga - Dean Pohlman, P; 03/10/2015
56; Assorted Magazines Bundle - March 3 2015 (True PDF); 03/10/2015
57; How to Study - Ron Fry - Mantesh; 03/10/2015
58; Penis Exercises - A Healthy Book for Enlargement, Enhancement, H; 03/10/2015
59; Home Recipes 2015 (gnv64); 03/10/2015
60; The 4000 English Words Essential for an Educated Vocabulary; 03/10/2015
61; Hacking Wireless Networks For Dummies; 03/10/2015
62; Tabloid Magazines Bundle - March 10 2015 (True PDF); 03/10/2015
63; The Firefly Five Language Visual Dictionary: English, Spanish, F; 03/10/2015
64; The Ayurveda Encyclopedia - Ayurvedic Home Remedies Collection; 03/10/2015
65; The Girl on the Train - Paula Hawkins; 03/10/2015
66; Excel 2010: Managing Multiple Worksheets and Workbooks; 03/10/2015
67; The Encyclopedia of Sandwiches - Susan Russo; 03/10/2015
68; Life Skills: How to Do Almost Anything (Pdf,Epub,Mobi) - Mantesh; 03/10/2015
69; Automobile Magazines Bundle - March 6 2015 (True PDF); 03/10/2015
70; Science Magazines - February 14 2015 (True PDF); 03/10/2015
71; Working with Hand Tools: Techniques for Woodworking - Paul N. Ha; 03/10/2015
72; Motorcycle Magazines Bundle - March 5 2015 (True PDF); 03/10/2015
73; Food Magazines Bundle - March 5 2015 (True PDF); 03/10/2015
74; Guitar Books for Dummies (gnv64); 03/10/2015
75; Design + Web Design books Collection; 03/10/2015
76; Gun Magazines Bundle - March 1 2015 (True PDF); 03/10/2015
77; Photography Magazines - February 13 2015 (True PDF); 03/10/2015
78; Computer Magazines Bundle - February 13 2015 (True PDF); 03/10/2015
79; Assorted Magazines Bundle - February 28 2015 (True PDF); 03/10/2015
80; 100 Photographs That Changed The World (Photography Art Ebook).p; 03/10/2015
81; Nature Anatomy (gnv64); 03/10/2015
82; Portrait Mastery in Black & White: Learn the Signature; 03/10/2015
83; How to Be Your Own Home Electrician,Troubleshooting and Testing ; 03/10/2015
84; Assorted Magazines Bundle - March 1 2015 (True PDF); 03/10/2015
85; Chris Kyle - American Sniper; 03/10/2015
86; Food Magazines Bundle - February 27 2015 (True PDF); 03/10/2015
87; Practical Electronics for Inventors - 3rd Edition.epub Gooner; 03/10/2015
88; The Great Palomar Telescope (gnv64); 03/10/2015
89; Womens Magazines Bundle - March 8 2015 (True PDF); 03/10/2015
90; English Bilingual Visual Dictionaries - Spanish,French,German,It; 03/10/2015
91; Assorted Magazines Bundle - February 27 2015 (True PDF); 03/10/2015
92; Swim Better, Swim Faster (gnv64); 03/10/2015
93; 1001 Recipes You've Always Wanted To Cook - Collins & Brown; 03/10/2015
94; Assorted Magazines Bundle March 4 2015 (True PDF); 03/10/2015
95; Home & Garden Magazines - March 4 2015 (True PDF); 03/10/2015
96; Deciphering Sun Tzu: How to Read The Art of War (2014) pdf; 03/10/2015
97; Men's Health Push, Pull, Swing: The Fat-Torching- Myatt Murphy; 03/10/2015
98; Bicycle Magazines Bundle - March 4 2015 (True PDF); 03/10/2015
99; Playboy Nederland Maart 2015. PDF. DMT; 03/10/2015
