0; Men&rsquo;s Fitness Workout Manual 2015 + 10 Week Body Plan - Yo; 03/21/2015
1; English: How to Speak English Fluently in 1 Week - Edward Clemon; 03/21/2015
2; Computer,Technology and Engineering And More Educational Books; 03/21/2015
3; Speed Mathematics - Secret Skills Collection; 03/21/2015
4; Boost Your Brain - Switch on Your Brain - Joel Levy - Mantesh; 03/21/2015
5; English Pronunciation Books and Audio Books Collection - Mantesh; 03/21/2015
6; Fitness by Penis:  Method to Enlarge Your Penis - Peter Pandore; 03/21/2015
7; Assorted Magazines Bundle - March 21 2015 (True PDF); 03/21/2015
8; The Speed Math Bible - Transform your Brain - Yamada Takumi; 03/21/2015
9; Sketching - Freehand and Digital Drawing Techniques for Artists ; 03/21/2015
10; The 9 Principles for a Lean & Defined Body - Philip Hoffman; 03/21/2015
11; Reflexology: Beginners Guide to Eliminate Pain, Lose Weight and ; 03/21/2015
12; The Great Book Of Best Quotes Of All Time.; 03/21/2015
13; 50 Shades of Herbs: The Best Natural Remedies for Better Sex, Be; 03/21/2015
14; The Future of Architecture in 100 Buildings - Marc Kushner,Tonya; 03/21/2015
15; The Secrets to Writing a Successful Business Plan - Hal Shelton; 03/21/2015
16; Jokes Books Collection - Mantesh; 03/21/2015
17; The Complete Book of Drawing Techniques [PDF] - Oceanhawk; 03/21/2015
18; Five Good Minutes in the Evening - Jeffrey Brantley, Wendy Mills; 03/21/2015
19; 101 Ready-to-Use Excel Formulas - Michael Alexander, Dick Kuslei; 03/21/2015
20; Assorted Magazines Bundle - March 20 2015 (True PDF); 03/21/2015
21; Learning Android Software Development ABEE; 03/21/2015
22; Encyclopedia of Electronic Components Volume 1,2 +  Instruments ; 03/21/2015
23; New York Times Bestsellers (January 04, 2015)(Fiction+Non-Fictio; 03/21/2015
24; How to Start a Home-based Computer Repair Business - Ryan Arter ; 03/21/2015
25; The 21-Day Big Muscle Plan + The 21-Day Shred - The No-BS Traini; 03/21/2015
26; Drawing For Beginners! - Amy Taggart + Drawing Complete Guide Fo; 03/21/2015
27; Fluent in 3 Months -  Speak Any Language, English,French,Spanish; 03/21/2015
28; Magazine Pack 02.20.2015 ABEE; 03/21/2015
29; The Great Big Book of Horrible Things - Matthew White - Mantesh; 03/21/2015
30; Practical Medical Procedures at a Glance [PDF][StormRG]; 03/21/2015
31; Maker Dad - Incredibly Cool  DIY Projects - Mark Frauenfelder ; 03/21/2015
32; Idiot's Guides: Basic Math and Pre-Algebra - Carolyn Wheater ; 03/21/2015
33; 1000 Foods To Eat Before You Die - Mimi Sheraton; 03/21/2015
34; The 4000 English Words Essential for an Educated Vocabulary; 03/21/2015
35; Assorted Magazines Bundle - March 19 2015 (True PDF); 03/21/2015
36; Fruit and Vegetables in Pots (gnv64); 03/21/2015
37; The Muscle And Fitness Cookbook: 55 Fast & Easy Meals for ; 03/21/2015
38; Discworld Collection by Terry Pratchett; 03/21/2015
39; The Complete Guide to Bathrooms + Bath Planning Guidelines; 03/21/2015
40; How to Draw Realistic Portraits: with Colored Pencils - Jasmina ; 03/21/2015
41; Show Me How: 500 Things You Should Know - Instructions for Life ; 03/21/2015
42; 5 Chess Books - March 2015 (gnv64); 03/21/2015
43; Hacking Wireless Networks For Dummies; 03/21/2015
44; Assorted Magazines Bundle - March 13 2015 (True PDF); 03/21/2015
45; Assorted Magazines - March 18 2015 (True PDF); 03/21/2015
46; The 48 Laws of Power by Robert Greene; 03/21/2015
47; 150 Best Minimalist House Ideas; 03/21/2015
48; The Girl on the Train - Paula Hawkins; 03/21/2015
49; Superfoods at Every Meal - Nourish Your Family with Quick and Ea; 03/21/2015
50; Principles of Hydraulic Systems Design 2E, Chapple [PDF][StormRG; 03/21/2015
51; The Firefly Five Language Visual Dictionary: English, Spanish, F; 03/21/2015
52; Assorted Magazines Bundle - March 16 2015 (True PDF); 03/21/2015
53; Computer & Gadget Magazines - February 20 2015 (True PDF); 03/21/2015
54; The Homeowner's DIY Guide to Electrical Wiring - David Herres - ; 03/21/2015
55; Sex Trafficking - Inside the Business of Modern Slavery (gnv64); 03/21/2015
56; Educational Materials - Activity Books, Coloring Books, and Puzz; 03/21/2015
57; The Economist - March 14 2015  USA; 03/21/2015
58; Assorted Magazines Bundle - March 15 2015 (True PDF); 03/21/2015
59; The Book of Books: Recommended Reading: Best Books (Fiction and ; 03/21/2015
60; Learning PHP, MySQL, JavaScript, CSS & HTML5, 3e (2014).; 03/21/2015
61; Life Skills: How to Do Almost Anything (Pdf,Epub,Mobi) - Mantesh; 03/21/2015
62; Womens Magazines Bundle - March 19 2015 (True PDF); 03/21/2015
63; Anatomy and Physiology for Nurses at a Glance [PDF][StormRG]; 03/21/2015
64; The Hair Bible - A Complete Guide to Health and Care,Fabulous Ha; 03/21/2015
65; Gadget & Gamer Magazines - March 18 2015 (True PDF); 03/21/2015
66; Guitar Books for Dummies (gnv64); 03/21/2015
67; Yoga Basics for Men: An Intro to Man Flow Yoga - Dean Pohlman, P; 03/21/2015
68; Italian Cookbook of Famous Pizza Restaurant Recipes[MyebookShelf; 03/21/2015
69; The Art of Seduction by Robert Greene - PDF - WD; 03/21/2015
70; How to Study - Ron Fry - Mantesh; 03/21/2015
71; The Ayurveda Encyclopedia - Ayurvedic Home Remedies Collection; 03/21/2015
72; Assorted Magazines Bundle - March 14 2015 (True PDF); 03/21/2015
73; Financial Statement Analysis (11th Ed)(gnv64); 03/21/2015
74; Working with Hand Tools: Techniques for Woodworking - Paul N. Ha; 03/21/2015
75; Automobile Magazines Bundle - March 18 2015 (True PDF); 03/21/2015
76; Penis Exercises - A Healthy Book for Enlargement, Enhancement, H; 03/21/2015
77; Lonely Planet Scandinavia (Travel Guide)[MyebookShelf]; 03/21/2015
78; Davis s Comprehensive Handbook of Laboratory Diagnostic Tests [P; 03/21/2015
79; 100 Photographs That Changed The World (Photography Art Ebook).p; 03/21/2015
80; Python Programming Fundamentals - 2nd Edition - Kent D. Lee; 03/21/2015
81; How to Be Your Own Home Electrician,Troubleshooting and Testing ; 03/21/2015
82; Small Space Organizing: A Room by Room Guide to Maximizing Your ; 03/21/2015
83; How to Clear Your Home of Ghosts & Spirits,Haunted Places; 03/21/2015
84; Assorted Magazines Bundle - March 12 2015 (True PDF); 03/21/2015
85; The Art of Nepal (Art Ebook).pdf; 03/21/2015
86; How to Make Your Car Last Forever: Avoid Expensive Repairs, Impr; 03/21/2015
87; The Element Encyclopedia of Secret Signs and Symbols -Mantesh; 03/21/2015
88; This Idea Must Die (2015) epub; 03/21/2015
89; Chris Kyle - American Sniper; 03/21/2015
90; Jamie's 15 Minute Meals: Delicious, Nutritious,Super Fast Food -; 03/21/2015
91; Assorted Magazines Bundle - March 8 2015 (True PDF); 03/21/2015
92; The Complete Idiot's Guide to Simple Home Repair -Mantesh; 03/21/2015
93; Design + Web Design books Collection; 03/21/2015
94; Best of Watercolor - Painting Texture (Art Ebook).pdf; 03/21/2015
95; Problem Solving 101: A Simple Book for Smart People -Mantesh; 03/21/2015
96; Photography Magazines - February 13 2015 (True PDF); 03/21/2015
97; Portrait Mastery in Black & White: Learn the Signature; 03/21/2015
98; The Complete Idiot's Guide to Self-Sufficient Living (Pdf,Mobi) ; 03/21/2015
99; The First 20 Hours: How to Learn Anything . . . Fast! -Mantesh; 03/21/2015
