0; Men&rsquo;s Fitness Workout Manual 2015 + 10 Week Body Plan - Yo; 03/24/2015
1; English: How to Speak English Fluently in 1 Week - Edward Clemon; 03/24/2015
2; Speed Mathematics - Secret Skills Collection; 03/24/2015
3; Lonely Planet's Best in Travel 2015: The Best Trends, Destinatio; 03/24/2015
4; Computer,Technology and Engineering And More Educational Books; 03/24/2015
5; Boost Your Brain - Switch on Your Brain - Joel Levy - Mantesh; 03/24/2015
6; Fitness by Penis:  Method to Enlarge Your Penis - Peter Pandore; 03/24/2015
7; The Speed Math Bible - Transform your Brain - Yamada Takumi; 03/24/2015
8; English Pronunciation Books and Audio Books Collection - Mantesh; 03/24/2015
9; The 9 Principles for a Lean & Defined Body - Philip Hoffman; 03/24/2015
10; The Great Book Of Best Quotes Of All Time.; 03/24/2015
11; Reflexology: Beginners Guide to Eliminate Pain, Lose Weight and ; 03/24/2015
12; Sketching - Freehand and Digital Drawing Techniques for Artists ; 03/24/2015
13; 50 Shades of Herbs: The Best Natural Remedies for Better Sex, Be; 03/24/2015
14; The Secrets to Writing a Successful Business Plan - Hal Shelton; 03/24/2015
15; Jokes Books Collection - Mantesh; 03/24/2015
16; The Future of Architecture in 100 Buildings - Marc Kushner,Tonya; 03/24/2015
17; New York Times Bestsellers (January 04, 2015)(Fiction+Non-Fictio; 03/24/2015
18; Assorted Magazines Bundle - March 22 2015 (True PDF); 03/24/2015
19; The Complete Book of Drawing Techniques [PDF] - Oceanhawk; 03/24/2015
20; Assorted Magazines Bundle - March 23 2015 (True PDF); 03/24/2015
21; 101 Ready-to-Use Excel Formulas - Michael Alexander, Dick Kuslei; 03/24/2015
22; The 21-Day Big Muscle Plan + The 21-Day Shred - The No-BS Traini; 03/24/2015
23; Learning Android Software Development ABEE; 03/24/2015
24; How to Start a Home-based Computer Repair Business - Ryan Arter ; 03/24/2015
25; Encyclopedia of Electronic Components Volume 1,2 +  Instruments ; 03/24/2015
26; Assorted Magazines Bundle - March 21 2015 (True PDF); 03/24/2015
27; Five Good Minutes in the Evening - Jeffrey Brantley, Wendy Mills; 03/24/2015
28; Fluent in 3 Months -  Speak Any Language, English,French,Spanish; 03/24/2015
29; Maker Dad - Incredibly Cool  DIY Projects - Mark Frauenfelder ; 03/24/2015
30; Magazine Pack 02.20.2015 ABEE; 03/24/2015
31; Assorted Magazines Bundle - March 24 2015 (True PDF); 03/24/2015
32; The Great Big Book of Horrible Things - Matthew White - Mantesh; 03/24/2015
33; The Muscle And Fitness Cookbook: 55 Fast & Easy Meals for ; 03/24/2015
34; The Complete Guide to Bathrooms + Bath Planning Guidelines; 03/24/2015
35; Assorted Magazines Bundle - March 20 2015 (True PDF); 03/24/2015
36; Drawing For Beginners! - Amy Taggart + Drawing Complete Guide Fo; 03/24/2015
37; Fruit and Vegetables in Pots (gnv64); 03/24/2015
38; How to Draw Realistic Portraits: with Colored Pencils - Jasmina ; 03/24/2015
39; The Girl on the Train - Paula Hawkins; 03/24/2015
40; 1000 Foods To Eat Before You Die - Mimi Sheraton; 03/24/2015
41; Idiot's Guides: Basic Math and Pre-Algebra - Carolyn Wheater ; 03/24/2015
42; PC Magazine USA - April 2015[MyebookShelf]; 03/24/2015
43; Discworld Collection by Terry Pratchett; 03/24/2015
44; Show Me How: 500 Things You Should Know - Instructions for Life ; 03/24/2015
45; 150 Best Minimalist House Ideas; 03/24/2015
46; Popular Mechanics - April 2015  ZA; 03/24/2015
47; Learning PHP, MySQL, JavaScript, CSS & HTML5, 3e (2014).; 03/24/2015
48; Hacking Wireless Networks For Dummies; 03/24/2015
49; The 48 Laws of Power by Robert Greene; 03/24/2015
50; The Hair Bible - A Complete Guide to Health and Care,Fabulous Ha; 03/24/2015
51; Educational Materials - Activity Books, Coloring Books, and Puzz; 03/24/2015
52; The 4000 English Words Essential for an Educated Vocabulary; 03/24/2015
53; The Homeowner's DIY Guide to Electrical Wiring - David Herres - ; 03/24/2015
54; Superfoods at Every Meal - Nourish Your Family with Quick and Ea; 03/24/2015
55; 5 Chess Books - March 2015 (gnv64); 03/24/2015
56; Yoga Basics for Men: An Intro to Man Flow Yoga - Dean Pohlman, P; 03/24/2015
57; Assorted Magazines Bundle - March 15 2015 (True PDF); 03/24/2015
58; How to Study - Ron Fry - Mantesh; 03/24/2015
59; Assorted Magazines Bundle - March 13 2015 (True PDF); 03/24/2015
60; Guitar Books for Dummies (gnv64); 03/24/2015
61; Practical Medical Procedures at a Glance [PDF][StormRG]; 03/24/2015
62; Problem Solving 101: A Simple Book for Smart People -Mantesh; 03/24/2015
63; Sex Trafficking - Inside the Business of Modern Slavery (gnv64); 03/24/2015
64; Food Magazines Bundle - March 24 2015 (True PDF); 03/24/2015
65; Computer & Gadget Magazines - February 20 2015 (True PDF); 03/24/2015
66; Working with Hand Tools: Techniques for Woodworking - Paul N. Ha; 03/24/2015
67; 100 Photographs That Changed The World (Photography Art Ebook).p; 03/24/2015
68; Lonely Planet Discover Caribbean Islands[MyebookShelf]; 03/24/2015
69; Assorted Magazines Bundle - March 16 2015 (True PDF); 03/24/2015
70; Penis Exercises - A Healthy Book for Enlargement, Enhancement, H; 03/24/2015
71; Life Skills: How to Do Almost Anything (Pdf,Epub,Mobi) - Mantesh; 03/24/2015
72; Financial Statement Analysis (11th Ed)(gnv64); 03/24/2015
73; The Economist - March 14 2015  USA; 03/24/2015
74; Assorted Magazines Bundle - March 14 2015 (True PDF); 03/24/2015
75; The Art of Seduction by Robert Greene - PDF - WD; 03/24/2015
76; Lonely Planet Discover Peru (Travel Guide)[MyebookShelf]; 03/24/2015
77; Assorted Magazines Bundle - March 19 2015 (True PDF); 03/24/2015
78; Womens Magazines Bundle - March 24 2015 (True PDF); 03/24/2015
79; The Book of Books: Recommended Reading: Best Books (Fiction and ; 03/24/2015
80; The Firefly Five Language Visual Dictionary: English, Spanish, F; 03/24/2015
81; Better Homes and Gardens Baking Step by Step[MyebookShelf]; 03/24/2015
82; Assorted Magazines - March 18 2015 (True PDF); 03/24/2015
83; How to Clear Your Home of Ghosts & Spirits,Haunted Places; 03/24/2015
84; Home & Garden Magazines - March 12 2015 (True PDF); 03/24/2015
85; The Complete Idiot's Guide to Simple Home Repair -Mantesh; 03/24/2015
86; Chris Kyle - American Sniper; 03/24/2015
87; Design + Web Design books Collection; 03/24/2015
88; Python Programming Fundamentals - 2nd Edition - Kent D. Lee; 03/24/2015
89; Richard Young - The Big Book of Glamour: 200 Secrets of easier ,; 03/24/2015
90; Italian Cookbook of Famous Pizza Restaurant Recipes[MyebookShelf; 03/24/2015
91; How to Be Your Own Home Electrician,Troubleshooting and Testing ; 03/24/2015
92; Lonely Planet Scandinavia (Travel Guide)[MyebookShelf]; 03/24/2015
93; IELTS Advantage: Reading ,Writing Skills - Jeremy Taylor , Jon W; 03/24/2015
94; The Ayurveda Encyclopedia - Ayurvedic Home Remedies Collection; 03/24/2015
95; The World's 200 Hardest Brain Teasers: Mind-Boggling Puzzles, Pr; 03/24/2015
96; Gadget & Gamer Magazines - March 18 2015 (True PDF); 03/24/2015
97; CHECK YOUR VOCABULARY FOR IELTS-MANTESHWER; 03/24/2015
98; Kaplan MCAT Review 2015 Edition - 7 books; 03/24/2015
99; Assorted Magazines Bundle - March 12 2015 (True PDF); 03/24/2015
